Place,Name,State,Country,Division,BodyweightKg,WeightClassKg,Squat1Kg,Squat2Kg,Squat3Kg,Best3SquatKg,Bench1Kg,Bench2Kg,Bench3Kg,Best3BenchKg,Deadlift1Kg,Deadlift2Kg,Deadlift3Kg,Best3DeadliftKg,TotalKg,Sex,Event,Equipment,AgeRange,BirthDate
1,Alex Summers,SE,England,M-C-U18,49.65,53,-102.5,110,115,115,62.5,67.5,-71,67.5,117.5,125,130,130,312.5,M,SBD,Raw,14-17.5,
1,Joel Wakeham,NW,England,M-C-U18,57.85,59,150,157.5,-165,157.5,80,87.5,-92.5,87.5,170,180.5,-190,180.5,425.5,M,SBD,Raw,14-17.5,
2,Edwin Whiteside,,N.Ireland,M-C-U18,58.45,59,127.5,132.5,137.5,137.5,70,73,75,75,147.5,155.5,160,160,372.5,M,SBD,Raw,14-17.5,
3,Bailey Robinson #2,YNE,England,M-C-U18,58.4,59,90,95,100,100,55,60,-62.5,60,127.5,132.5,135,135,295,M,SBD,Raw,14-17.5,
1,Matt Botham,SW,England,M-C-U18,65.05,66,155,170,177.5,177.5,90,95,97.5,97.5,190,200,207.5,207.5,482.5,M,SBD,Raw,14-17.5,
2,Jake Richardson,EM,England,M-C-U18,65.15,66,170,172.5,175,175,90,-95,95,95,190,200,-215,200,470,M,SBD,Raw,14-17.5,
3,Callum McGovern,NW,England,M-C-U18,62.95,66,-147.5,-147.5,147.5,147.5,85,87.5,92.5,92.5,170,180,187.5,187.5,427.5,M,SBD,Raw,14-17.5,
4,Adam Scott #1,SE,England,M-C-U18,64.85,66,132.5,140,145,145,-92.5,92.5,97.5,97.5,157.5,165,170,170,412.5,M,SBD,Raw,14-17.5,
5,Ben Hartley,NM,England,M-C-U18,64.35,66,120,125,127.5,127.5,75,77.5,82.5,82.5,135,147.5,157.5,157.5,367.5,M,SBD,Raw,14-17.5,
6,Rhys Willams,NM,England,M-C-U18,63.9,66,65,70,72.5,72.5,52.5,57.5,60,60,80,92.5,102.5,102.5,235,M,SBD,Raw,14-17.5,
DQ,Dylan Wilson #1,YNE,England,M-C-U18,65.15,66,-135,-147.5,-150.5,,80,85,-90.5,85,140,147.5,150,150,,M,SBD,Raw,14-16.5,
1,Harry Sugden,YNE,England,M-C-U18,68.05,74,201,208,-211.5,208,102.5,107.5,112.5,112.5,-205,212.5,222.5,222.5,543,M,SBD,Raw,14-17.5,
2,Ollie Walker #1,SE,England,M-C-U18,72.45,74,175,180,-185,180,125,131,-136,131,220,230,-242.5,230,541,M,SBD,Raw,14-17.5,
3,Daniel Collins #1,SE,England,M-C-U18,73.85,74,180,190,197.5,197.5,105,110,115,115,200,215,222.5,222.5,535,M,SBD,Raw,14-17.5,
4,Willain Cornisteanu Bailey,GL,England,M-C-U18,72.05,74,155,162.5,167.5,167.5,-117.5,117.5,122.5,122.5,185,200,210,210,500,M,SBD,Raw,14-17.5,
5,Mohammed Rahman #1,SE,England,M-C-U18,73.45,74,155,167.5,-172.5,167.5,97.5,-102.5,-102.5,97.5,200,-217.5,220,220,485,M,SBD,Raw,14-17.5,
6,Frederick Edge,WM,England,M-C-U18,70.25,74,165,-170,170,170,-90,-92.5,92.5,92.5,200,210,-220,210,472.5,M,SBD,Raw,14-17.5,
7,Kai Collins,,Wales,M-C-U18,72.2,74,155,165,170,170,-112.5,112.5,-117.5,112.5,182.5,-192.5,-192.5,182.5,465,M,SBD,Raw,14-17.5,
8,Samuel Stafford,NW,England,M-C-U18,69.05,74,145,147.5,-150,147.5,100,105,-110,105,-180,180,-185,180,432.5,M,SBD,Raw,14-17.5,
9,Tom Davis #3,,Wales,M-C-U18,68.85,74,122.5,132.5,-140,132.5,85,90,95,95,135,145,155,155,382.5,M,SBD,Raw,14-17.5,
10,Ben Williamson Entwistle,YNE,England,M-C-U18,69.25,74,90,100,107.5,107.5,70,75,-80,75,125,-130,130,130,312.5,M,SBD,Raw,14-17.5,
1,Lloyd Owen #2,,Scotland,M-C-U18,83,83,205,-215,220,220,110,120,125,125,210,220,230,230,575,M,SBD,Raw,14-17.5,
2,Ross Cundy,SW,England,M-C-U18,80.75,83,192.5,207.5,217.5,217.5,120,127.5,130,130,210,220,-225,220,567.5,M,SBD,Raw,14-17.5,
3,Leon Burrows,SW,England,M-C-U18,78.85,83,195,207.5,215,215,117.5,122.5,127.5,127.5,210,220,-230,220,562.5,M,SBD,Raw,14-17.5,
4,Oliwier Pilecki,SE,England,M-C-U18,76.1,83,-190,190,192.5,192.5,130,140,-146,140,220,-225,225,225,557.5,M,SBD,Raw,14-17.5,
5,Aiden Seargeant,YNE,England,M-C-U18,80.95,83,180,192.5,207.5,207.5,110,115,-117.5,115,185,200,210,210,532.5,M,SBD,Raw,14-17.5,
6,Nicholas Hwong,GL,England,M-C-U18,81.6,83,180,190,-195,190,110,117.5,120,120,200,212.5,217.5,217.5,527.5,M,SBD,Raw,14-17.5,
7,Joseph Moore,SM,England,M-C-U18,79.3,83,130,140,150,150,100,105,110,110,200,220,-230,220,480,M,SBD,Raw,14-17.5,
8,Harrison Convery,YNE,England,M-C-U18,81.15,83,165,167.5,170,170,90,-95,95,95,180,185,190,190,455,M,SBD,Raw,14-17.5,
9,Joby Mathew,NW,England,M-C-U18,82.55,83,130,137.5,142.5,142.5,95,100,105,105,182.5,190,200,200,447.5,M,SBD,Raw,14-17.5,
1,Ben Milne,,,M-C-U18,76.3,83,135,145,152.5,152.5,90,95,100,100,170,177.5,185,185,437.5,M,SBD,Raw,14-17.5,
1,Jack Breen,SM,England,M-C-U18,79.25,83,-140,140,152.5,152.5,90,95,-97.5,95,170,-180,180,180,427.5,M,SBD,Raw,14-17.5,
1,Scott Nixon,YNE,England,M-C-U18,79.1,83,135,145,150,150,72.5,77.5,-82.5,77.5,145,155,160,160,387.5,M,SBD,Raw,14-17.5,
1,Lewis Kelly,,England,M-C-Open,93,93,205,215,225,225,130,137.5,-140,137.5,240,257.5,270.5,270.5,633,M,SBD,Raw,14-17.5,
2,Kirill Sakharov,,England,M-C-Open,91.2,93,207.5,220,232.5,232.5,152.5,160,-165,160,217.5,230,-240,230,622.5,M,SBD,Raw,14-17.5,
3,Edward Harber,YNE,England,M-C-Open,91.6,93,200,-215,-222.5,200,-152.5,157.5,-165,157.5,240,260.5,-275.5,260.5,618,M,SBD,Raw,14-17.5,
4,Jack Davies,WM,England,M-C-Open,84.7,93,192.5,202.5,-205,202.5,100,107.5,-112.5,107.5,230,-237.5,-237.5,230,540,M,SBD,Raw,14-17.5,
5,Joel Clarke,SW,England,M-C-Open,86.75,93,162.5,172.5,180,180,122.5,-130,130,130,200,210,220,220,530,M,SBD,Raw,14-17.5,
6,Robert Christie,SW,England,M-C-Open,86.95,93,-185,-185,185,185,120,-127.5,-127.5,120,205,216,220,220,525,M,SBD,Raw,14-17.5,
7,Harry Skipper,EM,England,M-C-Open,90.5,93,170,182.5,-190,182.5,100,110,120,120,175,190,205,205,507.5,M,SBD,Raw,14-17.5,
8,Jack Tosh,,England,M-C-Open,90.05,93,192.5,-202.5,-202.5,192.5,115,-122.5,-122.5,115,192.5,-200,,192.5,500,M,SBD,Raw,14-17.5,
9,Josh Walker #3,SW,England,M-C-Open,92.3,93,-145,152.5,162.5,162.5,-97.5,97.5,107.5,107.5,175,185,192.5,192.5,462.5,M,SBD,Raw,14-17.5,
10,Euan Tempest,NM,England,M-C-Open,92.45,93,105,110,115,115,75,80,82.5,82.5,135,142.5,150,150,347.5,M,SBD,Raw,14-17.5,
11,Theo Wicks,YNE,England,M-C-Open,89,93,105,112.5,-120,112.5,75,80,-82.5,80,110,120,130,130,322.5,M,SBD,Raw,14-17.5,
DQ,Callum Miller-Weir,WM,England,M-C-Open,90.6,93,,,,,,,,,,,,,,M,SBD,Raw,14-17.5,
DQ,Jamie Green #1,NM,England,M-C-Open,90.65,93,115,125,135,135,-110,-122.5,-122.5,,,,,,,M,SBD,Raw,14-17.5,
1,Tommy Roberts,,England,M-C-Open,102.9,105,235,245,255,255,-147.5,155,160,160,235,-250,262.5,262.5,677.5,M,SBD,Raw,14-17.5,
2,Adham Omar,WM,England,M-C-Open,102.05,105,215,222.5,230,230,122.5,127.5,132.5,132.5,227.5,235,-242.5,235,597.5,M,SBD,Raw,14-17.5,
3,Oscar Burton,WM,England,M-C-Open,101.9,105,195,205,210,210,117.5,125,130,130,222.5,232.5,240,240,580,M,SBD,Raw,14-17.5,
4,Edward Crossley,SE,England,M-C-Open,100.9,105,192.5,200,210,210,130,135,140,140,200,212.5,225,225,575,M,SBD,Raw,14-17.5,
5,Joe Mercer,NM,England,M-C-Open,103.7,105,140,147.5,155,155,90,95,105,105,185,195,202.5,202.5,462.5,M,SBD,Raw,14-17.5,
1,Ivor Sutie,WM,England,M-C-Open,107.2,120,225,237.5,-245,237.5,130,135,142.5,142.5,245,260,-262.5,260,640,M,SBD,Raw,14-17.5,
2,Josh Pearson,NW,England,M-C-Open,111.1,120,195,205,212.5,212.5,120,122.5,132.5,132.5,210,220,225,225,570,M,SBD,Raw,14-17.5,
3,Lee McCafferty,,England,M-C-Open,116.75,120,202.5,212.5,217.5,217.5,122.5,127.5,132.5,132.5,200,210,215,215,565,M,SBD,Raw,14-16.5,
4,Sam Brady,WM,England,M-C-Open,116.2,120,175,182.5,-185,182.5,125,132.5,-137.5,132.5,205,212.5,-220,212.5,527.5,M,SBD,Raw,14-17.5,
5,Jake Turley,SW,England,M-C-Open,115.5,120,127.5,130,135,135,-57.5,60,62.5,62.5,150,160,-170,160,357.5,M,SBD,Raw,14-17.5,
1,Jack Laughton,,England,M-C-Open,136.65,120+,197.5,210,220,220,145,152.5,-161,152.5,235,247.5,-260,247.5,620,M,SBD,Raw,14-17.5,
2,Ian Lucy,YNE,England,M-C-Open,126.75,120+,197.5,207.5,-215,207.5,115,120,125,125,227.5,237.5,247.5,247.5,580,M,SBD,Raw,14-17.5,
3,Ray Bowring,SM,England,M-C-Open,127.5,120+,210,225,237.5,237.5,110,117.5,122.5,122.5,190,210,220,220,580,M,SBD,Raw,14-16.5,
1,Afzol Ali,GL,England,M-C-U23,59,59,145,152.5,157.5,157.5,100,105,107.5,107.5,200,-210,-210,200,465,M,SBD,Raw,18.5-23.5,
2,Robin Bermudez,NM,England,M-C-U23,57.4,59,142.5,152.5,160,160,92.5,100,-102.5,100,172.5,182.5,-205,182.5,442.5,M,SBD,Raw,18.5-23.5,
3,Sujan Sriharan,GL,England,M-C-U23,58,59,142.5,150,155,155,82.5,87.5,-90,87.5,170,180,185,185,427.5,M,SBD,Raw,18.5-23.5,
4,Declan Meecham,YNE,England,M-C-U23,58,59,140,150,-155,150,80,85,-87.5,85,160,170,-180,170,405,M,SBD,Raw,18.5-23.5,
1,Daniel Sherman,YNE,England,M-C-U23,65.9,66,197.5,-205,205,205,107.5,115,120,120,240,-257,257,257,582,M,SBD,Raw,18.5-23.5,
2,Kieron Parrett,SW,England,M-C-U23,65.4,66,-185,192.5,200,200,-102.5,-102.5,102.5,102.5,235,245,-250,245,547.5,M,SBD,Raw,18.5-23.5,
3,Ploutis Koumi,WM,England,M-C-U23,64.5,66,172.5,-182.5,-190,172.5,115,120,122.5,122.5,205,220,230,230,525,M,SBD,Raw,18.5-23.5,
4,Remi Rufus-Toye,GL,England,M-C-U23,65.7,66,170,182.5,-190,182.5,117.5,-127.5,-133,117.5,205,217.5,225,225,525,M,SBD,Raw,18.5-23.5,
5,Raghul Parthipan,GL,England,M-C-U23,65.9,66,185,-197.5,197.5,197.5,-122.5,122.5,-130,122.5,190,205,-210,205,525,M,SBD,Raw,18.5-23.5,
6,Kibria Ali,WM,England,M-C-U23,63.3,66,-170,170,-180,170,100,110,-112.5,110,190,200,212.5,212.5,492.5,M,SBD,Raw,18.5-23.5,
7,Christopher Rattray,NW,England,M-C-U23,63.2,66,160,170,-177.5,170,95,100,105,105,205,215,-225,215,490,M,SBD,Raw,18.5-23.5,
8,Samran Ahmed,WM,England,M-C-U23,63.3,66,150,160,167.5,167.5,90,95,100,100,180,190,195,195,462.5,M,SBD,Raw,18.5-23.5,
1,Nathan Winsala,GL,England,M-C-U23,74,74,-225,-232.5,232.5,232.5,112.5,120,-125,120,250,-257.5,257.5,257.5,610,M,SBD,Raw,18.5-23.5,
2,Corey Wiggins,SW,England,M-C-U23,73,74,217.5,227.5,238,238,142.5,-147.5,-147.5,142.5,210,227.5,-237.5,227.5,608,M,SBD,Raw,18.5-23.5,
3,Terry Martin,SM,England,M-C-U23,73,74,205,215,222.5,222.5,-132.5,140,145,145,220,235,-242.5,235,602.5,M,SBD,Raw,18.5-23.5,
4,Luke Wilson #2,SW,England,M-C-U23,72.2,74,220,230,238.5,238.5,-127.5,132.5,-137.5,132.5,215,227.5,-237.5,227.5,598.5,M,SBD,Raw,18.5-23.5,
5,Tim Rew,SW,England,M-C-U23,72.7,74,190,200,207.5,207.5,-107.5,110,117.5,117.5,222.5,237.5,245,245,570,M,SBD,Raw,18.5-23.5,
6,Ifti Raham,WM,England,M-C-U23,73.4,74,197.5,-207.5,-210,197.5,110,115,117.5,117.5,215,230,-240,230,545,M,SBD,Raw,18.5-23.5,
7,Zechi Gan,WM,England,M-C-U23,73.6,74,180,-192.5,192.5,192.5,115,-122.5,122.5,122.5,217.5,230,-242.5,230,545,M,SBD,Raw,18.5-23.5,
10,William Reid,WM,England,M-C-U23,73.5,74,175,-185,185,185,125,130,135,135,210,220,-225,220,540,M,SBD,Raw,18.5-23.5,
8,Angus Coyne-Grell,,England,M-C-U23,72.7,74,172.5,185,-190,185,112.5,117.5,122.5,122.5,220,232.5,-240,232.5,540,M,SBD,Raw,18.5-23.5,
9,Nirujan Shanmugavadivel,GL,England,M-C-U23,72.9,74,185,195,200,200,90,95,100,100,222.5,235,240,240,540,M,SBD,Raw,18.5-23.5,
11,Harry Bowers,GL,England,M-C-U23,72.5,74,155,162.5,170,170,105,112.5,-115,112.5,225,240,250,250,532.5,M,SBD,Raw,18.5-23.5,
13,Chris Gallaher,EM,England,M-C-U23,73.7,74,180,192.5,-200,192.5,-135,135,137.5,137.5,175,187.5,200,200,530,M,SBD,Raw,18.5-23.5,
12,Matthew Campion,SE,England,M-C-U23,72.9,74,167.5,177.5,185,185,127.5,132.5,-137.5,132.5,195,207.5,212.5,212.5,530,M,SBD,Raw,18.5-23.5,
14,Max Young,SE,England,M-C-U23,72.2,74,170,-180,187.5,187.5,115,120,-122.5,120,200,212.5,-220,212.5,520,M,SBD,Raw,18.5-23.5,
15,Mahammad Hamzah,WM,England,M-C-U23,73.4,74,180,187.5,-192.5,187.5,100,107.5,-110,107.5,200,215,-225,215,510,M,SBD,Raw,18.5-23.5,
16,Oliver Small,SW,England,M-C-U23,73.1,74,160,167.5,-172.5,167.5,110,115,-117.5,115,220,-235,-235,220,502.5,M,SBD,Raw,18.5-23.5,
17,Jian Onn Chin,SE,England,M-C-U23,71.9,74,175,180,185,185,107.5,112.5,-117.5,112.5,190,200,-205,200,497.5,M,SBD,Raw,18.5-23.5,
18,Hasan Nassar,WM,England,M-C-U23,72.7,74,185,-192.5,-192.5,185,90,95,-100,95,205,212.5,217.5,217.5,497.5,M,SBD,Raw,18.5-23.5,
19,Goffy Chun Him So,GL,England,M-C-U23,72.3,74,177.5,185,190,190,97.5,102.5,105,105,180,190,200,200,495,M,SBD,Raw,18.5-23.5,
20,Syazwan Zulkofli,SE,England,M-C-U23,68.1,74,162.5,170,-172.5,170,92.5,95,100,100,210,217.5,-220,217.5,487.5,M,SBD,Raw,18.5-23.5,
21,Oliver Holdsworth,SM,England,M-C-U23,71.9,74,170,177.5,180,180,90,95,-100,95,180,192.5,200,200,475,M,SBD,Raw,18.5-23.5,
22,Oliver Impy,SW,England,M-C-U23,73.1,74,-152.5,152.5,-162.5,152.5,95,102.5,-105,102.5,190,202.5,215,215,470,M,SBD,Raw,18.5-23.5,
DQ,Gabriel Tan,YNE,England,M-C-U23,71.7,74,-210,210,-220,210,,,,,,,,,,M,SBD,Raw,18.5-23.5,
DQ,Tyler Lloyd #2,YNE,England,M-C-U23,73.8,74,-175,-175,-175,,125,-135,135,135,195,205,-215,205,,M,SBD,Raw,18.5-23.5,
1,Salman Khan #1,EM,England,M-C-U23,81.7,83,220,235,240,240,150,155,157.5,157.5,275,-295,295,295,692.5,M,SBD,Raw,18.5-23.5,
2,Scott Webb,,England,M-C-U23,81.55,83,242.5,255,262.5,262.5,145,150,-155,150,257.5,272.5,277.5,277.5,690,M,SBD,Raw,18.5-23.5,
3,Dylan Nelson #1,YNE,England,M-C-U23,82.75,83,-275,280,-293,280,147.5,155,160,160,240,250,-255,250,690,M,SBD,Raw,18.5-23.5,
4,Jack Suljevic,SW,England,M-C-U23,81.4,83,235,247.5,255,255,127.5,-135,137.5,137.5,260,280,-297.5,280,672.5,M,SBD,Raw,18.5-23.5,
5,Curtis Taylor,,England,M-C-U23,82.65,83,215,227.5,232.5,232.5,145,152.5,155,155,245,257.5,-262.5,257.5,645,M,SBD,Raw,18.5-23.5,
6,Thomas Hutchinson,YNE,England,M-C-U23,83,83,210,-222.5,225,225,127.5,135,140,140,250,262.5,272.5,272.5,637.5,M,SBD,Raw,18.5-23.5,
7,Ben Willis,YNE,England,M-C-U23,82.15,83,217.5,-232.5,235,235,127.5,135,140,140,255,-272.5,-280,255,630,M,SBD,Raw,18.5-23.5,
8,William Pickering #1,SM,England,M-C-U23,81.25,83,-210,210,222.5,222.5,135,-140,142.5,142.5,245,260,-265,260,625,M,SBD,Raw,18.5-23.5,
9,Mohammed Ahad,GL,England,M-C-U23,81.5,83,-230,230,240,240,100,107.5,115,115,260,270,-280,270,625,M,SBD,Raw,18.5-23.5,
10,James Coleman,SE,England,M-C-U23,81,83,217.5,230,-240,230,155,-160,,155,220,235,-240,235,620,M,SBD,Raw,18.5-23.5,
11,Giuseppe Merlerati,WM,England,M-C-U23,81.3,83,-202.5,-202.5,202.5,202.5,145,-150,-150,145,255,270,-282.5,270,617.5,M,SBD,Raw,18.5-23.5,
12,Max Bashiri,YNE,England,M-C-U23,82.7,83,-200,200,210,210,127.5,135,140,140,235,250,257.5,257.5,607.5,M,SBD,Raw,18.5-23.5,
13,Dan Magee,SE,England,M-C-U23,82.3,83,195,210,215,215,145,152.5,155,155,215,225,232.5,232.5,602.5,M,SBD,Raw,18.5-23.5,
14,Xiu Sheng Kevin Ta,,England,M-C-U23,80.65,83,197.5,-210,210,210,122.5,127.5,135,135,227.5,245,255,255,600,M,SBD,Raw,18.5-23.5,
15,Badrun Ali,GL,England,M-C-U23,82,83,202.5,212.5,-217.5,212.5,135,142.5,147.5,147.5,215,225,235,235,595,M,SBD,Raw,18.5-23.5,
16,Joe Feeney,YNE,England,M-C-U23,82.15,83,215,230,-235,230,137.5,-145,145,145,220,-237.5,-250,220,595,M,SBD,Raw,18.5-23.5,
17,Hud Syafig Herman,GL,England,M-C-U23,82.55,83,200,-207.5,-207.5,200,140,147.5,152.5,152.5,240,-252.5,-260,240,592.5,M,SBD,Raw,18.5-23.5,
18,Theo Warren,GL,England,M-C-U23,82.25,83,192.5,202.5,207.5,207.5,127.5,132.5,-135,132.5,225,232.5,240,240,580,M,SBD,Raw,18.5-23.5,
19,Tom Shipton,NM,England,M-C-U23,81.95,83,195,202.5,207.5,207.5,130,137.5,142.5,142.5,200,210,217.5,217.5,567.5,M,SBD,Raw,18.5-23.5,
20,Albie Sayer,EM,England,M-C-U23,82.55,83,190,205,-207.5,205,120,-130,130,130,-220,230,-240,230,565,M,SBD,Raw,18.5-23.5,
21,Hasan Iqbal,WM,England,M-C-U23,82.2,83,-200,200,-207.5,200,110,117.5,125,125,220,225,235,235,560,M,SBD,Raw,18.5-23.5,
22,Steven Smithies,EM,England,M-C-U23,82.65,83,170,182.5,-190,182.5,130,135,-137.5,135,200,215,225,225,542.5,M,SBD,Raw,18.5-23.5,
23,Finlagh Suttie,WM,England,M-C-U23,82.6,83,190,-200,-200,190,120,-125,-125,120,-230,-230,230,230,540,M,SBD,Raw,18.5-23.5,
24,Ibrahim Dridi,NM,England,M-C-U23,78.65,83,170,180,190,190,92.5,100,105,105,-225,225,240,240,535,M,SBD,Raw,18.5-23.5,
25,Raihan Mohammed,NW,England,M-C-U23,74.25,83,180,185,-190,185,105,110,112.5,112.5,210,220,,220,517.5,M,SBD,Raw,18.5-23.5,
DQ,Luke Lorima,SM,England,M-C-U23,82.5,83,-187.5,-187.5,-187.5,,105,110,-115,110,205,220,230,230,,M,SBD,Raw,18.5-23.5,
1,Luke Tolman,SW,England,M-C-U23,92.6,93,240,257.5,-270,257.5,200,-210,210,210,257.5,272.5,275,275,742.5,M,SBD,Raw,18.5-23.5,
2,Adedapo Ojewale,GL,England,M-C-U23,90.15,93,250,-257.5,257.5,257.5,160,165,-167.5,165,300,-317.5,-320,300,722.5,M,SBD,Raw,18.5-23.5,
3,Erik Mata,EM,England,M-C-U23,90.65,93,-260,260,-277.5,260,170,177.5,-182.5,177.5,265,-285,-305,265,702.5,M,SBD,Raw,18.5-23.5,1996-08-28
4,Jacob Wymer,EM,England,M-C-U23,91.95,93,225,237.5,247.5,247.5,135,142.5,-147.5,142.5,272.5,290,300,300,690,M,SBD,Raw,18.5-23.5,
5,Ryan Jones #1,NW,England,M-C-U23,92.15,93,245,265,-280,265,150,155,160,160,245,-265,265,265,690,M,SBD,Raw,18.5-23.5,
6,Lewis Ball,GL,England,M-C-U23,92.2,93,230,-240,245,245,150,157.5,-160,157.5,250,265,-270,265,667.5,M,SBD,Raw,18.5-23.5,
7,Charlie Hibbert,SE,England,M-C-U23,92.45,93,205,215,225,225,157.5,165,-170,165,255,267.5,-275,267.5,657.5,M,SBD,Raw,18.5-23.5,
8,Sam Kuti,,England,M-C-U23,90.85,93,205,215,220,220,132.5,-137.5,137.5,137.5,272.5,-287.5,287.5,287.5,645,M,SBD,Raw,18.5-23.5,
9,Aidan Sharp,NW,England,M-C-U23,89.15,93,190,205,217.5,217.5,135,142.5,150,150,245,260,272.5,272.5,640,M,SBD,Raw,18.5-23.5,
10,Benjamin Jenkins,NW,England,M-C-U23,92,93,210,230,240,240,130,140,-142.5,140,235,252.5,260,260,640,M,SBD,Raw,18.5-23.5,
11,Harry Davies,GL,England,M-C-U23,86.95,93,215,220,-227.5,220,-140,140,145,145,245,255,262.5,262.5,627.5,M,SBD,Raw,18.5-23.5,
12,Dan Wooldridge,SM,England,M-C-U23,92.35,93,212.5,222.5,-230,222.5,140,147.5,152.5,152.5,220,232.5,242.5,242.5,617.5,M,SBD,Raw,18.5-23.5,
13,Sam Laban,NM,England,M-C-U23,89.95,93,215,225,-240,225,-135,140,-145,140,230,245,-255,245,610,M,SBD,Raw,18.5-23.5,
14,Owen Leggett,NM,England,M-C-U23,89.35,93,215,225,-230,225,122.5,127.5,-130,127.5,240,255,-277.5,255,607.5,M,SBD,Raw,18.5-23.5,
15,Malik Hamrouni,YNE,England,M-C-U23,92.35,93,187.5,200,210,210,-137.5,145,-150,145,250,-265,-272.5,250,605,M,SBD,Raw,18.5-23.5,
16,Tom Seldon,,Wales,M-C-U23,92.25,93,215,225,227.5,227.5,127.5,-132.5,-132.5,127.5,235,245,-250,245,600,M,SBD,Raw,18.5-23.5,
17,Tom Collins #3,,Wales,M-C-U23,90.9,93,195,-202.5,-202.5,195,-145,145,-150,145,225,240,250,250,590,M,SBD,Raw,18.5-23.5,
18,Elliot Owen,,,M-C-U23,89.15,93,200,212.5,-222.5,212.5,120,132.5,-140,132.5,220,232.5,242.5,242.5,587.5,M,SBD,Raw,18.5-23.5,
19,Aytan Sarisoy,SM,England,M-C-U23,92.05,93,192.5,202.5,210,210,117.5,125,-130,125,220,240,250,250,585,M,SBD,Raw,18.5-23.5,
20,Sam Kenyon,SM,England,M-C-U23,92.3,93,190,200,210,210,135,142.5,-145,142.5,215,227.5,-240,227.5,580,M,SBD,Raw,18.5-23.5,
21,Tom Miller #2,NM,England,M-C-U23,87.15,93,180,190,-195,190,125,130,-135,130,240,247.5,-252.5,247.5,567.5,M,SBD,Raw,18.5-23.5,
22,Ka Chun Wan,EM,England,M-C-U23,90.5,93,190,202.5,207.5,207.5,115,120,-122.5,120,225,240,-245,240,567.5,M,SBD,Raw,18.5-23.5,
23,Jonathan Hulin,SW,England,M-C-U23,86.55,93,195,205,-212.5,205,125,130,-137.5,130,220,227.5,-232.5,227.5,562.5,M,SBD,Raw,18.5-23.5,
24,Ubayd Ahmed,NM,England,M-C-U23,90,93,205,215,-225,215,105,115,120,120,-205,210,227.5,227.5,562.5,M,SBD,Raw,18.5-23.5,
1,Callum Crozier,,England,M-C-U23,103.06,105,245,260,265,265,190,200,-205,200,295,310,317.5,317.5,782.5,M,SBD,Raw,18.5-23.5,
2,Aron Hegedus,SM,England,M-C-U23,104.55,105,245,257.5,267.5,267.5,157.5,165,170,170,285,305,315,315,752.5,M,SBD,Raw,18.5-23.5,
3,Alexander Pierides,GL,England,M-C-U23,104.05,105,255,270,277.5,277.5,175,185,187.5,187.5,-275,285,-295,285,750,M,SBD,Raw,18.5-23.5,
4,Ben Wharton,YNE,England,M-C-U23,104,105,260,272.5,-280,272.5,150,160,165,165,282.5,295,-305,295,732.5,M,SBD,Raw,18.5-23.5,
5,Michael Tennant,SE,England,M-C-U23,98.85,105,237.5,247.5,255,255,137.5,147.5,155,155,290,305,310,310,720,M,SBD,Raw,18.5-23.5,
6,Chris Herdman,YNE,England,M-C-U23,102.95,105,245,250,-257.5,250,160,170,177.5,177.5,270,290,-300,290,717.5,M,SBD,Raw,18.5-23.5,
7,Rowan Hanson,YNE,England,M-C-U23,102.35,105,232.5,247.5,255,255,155,162.5,170,170,250,270,277.5,277.5,702.5,M,SBD,Raw,18.5-23.5,
8,Ebeniza Adelanwa,EM,England,M-C-U23,101.75,105,245,-257.5,265,265,145,155,-162.5,155,280,-295,-295,280,700,M,SBD,Raw,18.5-23.5,
9,Ben Glasscock,SE,England,M-C-U23,103.05,105,235,245,255,255,132.5,140,145,145,285,300,-310,300,700,M,SBD,Raw,18.5-23.5,
10,Eogan Moriarty,YNE,England,M-C-U23,103.15,105,235,247.5,255,255,135,145,150,150,265,-277.5,-277.5,265,670,M,SBD,Raw,18.5-23.5,
11,Bradley Horne #1,SM,England,M-C-U23,105,105,207.5,217.5,225,225,177.5,-185,-185,177.5,252.5,260,265,265,667.5,M,SBD,Raw,18.5-23.5,
12,Sean-Paul MacKenzie,,,M-C-U23,100.45,105,235,245,-255,245,127.5,132.5,-135,132.5,270,285,-300,285,662.5,M,SBD,Raw,18.5-23.5,
13,Michael Perides,GL,England,M-C-U23,95.9,105,220,232.5,242.5,242.5,145,150,155,155,237.5,252.5,-260,252.5,650,M,SBD,Raw,18.5-23.5,
14,Edgar Glover,SE,England,M-C-U23,98.03,105,200,215,220,220,115,125,130,130,240,260,272.5,272.5,622.5,M,SBD,Raw,18.5-23.5,
15,Callum Sims,GL,England,M-C-U23,102.04,105,180,195,205,205,127.5,135,142.5,142.5,255,-270,-272.5,255,602.5,M,SBD,Raw,18.5-23.5,
16,Jason Bailes,SM,England,M-C-U23,103.03,105,195,205,212.5,212.5,110,120,130,130,230,245,260,260,602.5,M,SBD,Raw,18.5-23.5,
17,Corey Plummer,,England,M-C-U23,99.45,105,195,210,215,215,125,132.5,140,140,220,240,245,245,600,M,SBD,Raw,18.5-23.5,
18,Benedict Millson,GL,England,M-C-U23,96.95,105,205,-210,210,210,120,125,-130,125,235,245,250,250,585,M,SBD,Raw,18.5-23.5,
1,Kieran Gray,YNE,England,M-C-U23,118.03,120,275,292.5,305,305,195,202.5,210,210,300,320,-333,320,835,M,SBD,Raw,18.5-23.5,
2,Robert Stewart #1,YNE,England,M-C-U23,118.09,120,265,275,285,285,165,175,-182.5,175,270,280,-290,280,740,M,SBD,Raw,18.5-23.5,
3,Jack Dunkley,EM,England,M-C-U23,114.75,120,235,247.5,255,255,160,170,175,175,265,280,-300,280,710,M,SBD,Raw,18.5-23.5,
4,Jake Speller,,,M-C-U23,116.65,120,255,270,-275,270,145,-155,155,155,230,250,260,260,685,M,SBD,Raw,18.5-23.5,
5,Hector van Smirren,SM,England,M-C-U23,111.05,120,207.5,220,227.5,227.5,135,145,150,150,230,245,262.5,262.5,640,M,SBD,Raw,18.5-23.5,
6,Donald Man,GL,England,M-C-U23,119.04,120,200,-215,215,215,125,130,-132.5,130,242.5,255,270,270,615,M,SBD,Raw,18.5-23.5,
7,Zachary Conway,SW,England,M-C-U23,114.08,120,220,232.5,-237.5,232.5,110,125,-132.5,125,230,245,-255,245,602.5,M,SBD,Raw,18.5-23.5,
8,Casey Dunn #1,NM,England,M-C-U23,106.95,120,-210,210,220,220,130,-135,,130,240,-250,-250,240,590,M,SBD,Raw,18.5-23.5,
DQ,Lewis Harding,SE,England,M-C-U23,116.65,120,225,240,250,250,155,,,155,-290,,,,,M,SBD,Raw,18.5-23.5,
1,Luke Richardson #1,YNE,England,M-C-U23,145.85,120+,360,385,400,400,197.5,212.5,220.5,220.5,342.5,380,,380,1000.5,M,SBD,Raw,18.5-23.5,
2,Kierran Leith,,England,M-C-U23,146.85,120+,300,-325,325,325,170,180,-185,180,270,290,-297.5,290,795,M,SBD,Raw,18.5-23.5,
3,Ben Rant,SW,England,M-C-U23,158.4,120+,290,305,317.5,317.5,165,175,185,185,260,275,285,285,787.5,M,SBD,Raw,18.5-23.5,1998-08-28
4,Frazer Pennington,NW,England,M-C-U23,130.4,120+,300,-315,,300,175,187.5,190,190,180,220,250,250,740,M,SBD,Raw,18.5-23.5,
5,Nicholas Rowe,SM,England,M-C-U23,121.45,120+,-215,215,225,225,145,152.5,-160,152.5,270,280,-287.5,280,657.5,M,SBD,Raw,18.5-23.5,
6,Bradley Redford,YNE,England,M-C-U23,120.45,120+,200,207.5,212.5,212.5,130,137.5,-142.5,137.5,265,275,282.5,282.5,632.5,M,SBD,Raw,18.5-23.5,
DQ,Nick Mellor,SW,England,M-C-U23,148.2,120+,-290,-310,-310,,170,172.5,-180,172.5,270,-300,-300,270,,M,SBD,Raw,18.5-23.5,
